10 DataFrame | Python for Data Science
…
10.3 Printing

Data frames have a refined print method that shows only the first and last 5 rows, and all the columns that fit on screen. This makes it much easier to work with large data.

tibble(
  a = lubridate::now() + runif(1e3) * 86400,
  b = lubridate::today() + runif(1e3) * 30,
  c = 1:1e3,
  d = runif(1e3),
  e = sample(letters, 1e3, replace = TRUE)
)
#> # A tibble: 1,000 x 5
#>   a                   b              c     d e    
#>   <dttm>              <date>     <int> <dbl> <chr>
#> 1 2020-06-25 19:21:49 2020-07-02     1 0.368 n    
#> 2 2020-06-26 13:26:59 2020-07-07     2 0.612 l    
#> 3 2020-06-26 07:50:38 2020-07-17     3 0.415 p    
#> 4 2020-06-25 21:11:55 2020-07-16     4 0.212 m    
#> 5 2020-06-25 17:36:12 2020-07-13     5 0.733 i    
#> 6 2020-06-26 04:37:09 2020-07-09     6 0.460 n    
#> # … with 994 more rows
…
